<?xml version="1.0" encoding="UTF-8" standalone="no"?>
<svg width="17px" height="17px" viewBox="0 0 17 17" version="1.1" xmlns="http://www.w3.org/2000/svg" xmlns:xlink="http://www.w3.org/1999/xlink" xmlns:sketch="http://www.bohemiancoding.com/sketch/ns">
    <!-- Generator: Sketch 3.3.3 (12081) - http://www.bohemiancoding.com/sketch -->
    <title>clock3</title>
    <desc>Created with Sketch.</desc>
    <defs>
        <circle id="path-1" cx="7.5" cy="7.5" r="7.5"></circle>
        <linearGradient x1="50%" y1="0%" x2="50%" y2="100%" id="linearGradient-2">
            <stop stop-color="#9C9C9C" offset="0%"></stop>
            <stop stop-color="#000000" stop-opacity="0.5" offset="100%"></stop>
        </linearGradient>
        <circle id="path-3" cx="7.5" cy="7.5" r="0.5"></circle>
        <filter x="-50%" y="-50%" width="200%" height="200%" filterUnits="objectBoundingBox" id="filter-4">
            <feOffset dx="0" dy="0" in="SourceAlpha" result="shadowOffsetOuter1"></feOffset>
            <feGaussianBlur stdDeviation="0" in="shadowOffsetOuter1" result="shadowBlurOuter1"></feGaussianBlur>
            <feColorMatrix values="0 0 0 0 0   0 0 0 0 0   0 0 0 0 0  0 0 0 0.35 0" in="shadowBlurOuter1" type="matrix" result="shadowMatrixOuter1"></feColorMatrix>
            <feMerge>
                <feMergeNode in="shadowMatrixOuter1"></feMergeNode>
                <feMergeNode in="SourceGraphic"></feMergeNode>
            </feMerge>
        </filter>
        <path id="path-5" d="M7.5,7.5 L10.5,9.5"></path>
        <path id="path-6" d="M7.5,7.5 L7.5,1.5"></path>
    </defs>
    <g id="Page-1" stroke="none" stroke-width="1" fill="none" fill-rule="evenodd" sketch:type="MSPage">
        <g id="clock3" sketch:type="MSLayerGroup" transform="translate(1.000000, 1.000000)">
            <g id="Oval-1" stroke="#9C9C9C">
                <use sketch:type="MSShapeGroup" xlink:href="#path-1"></use>
                <use xlink:href="#path-1"></use>
            </g>
            <g id="Oval-2">
                <use stroke="#979797" fill="#D8D8D8" sketch:type="MSShapeGroup" xlink:href="#path-3"></use>
                <use stroke="#9C9C97" fill="url(#linearGradient-2)" xlink:href="#path-3"></use>
            </g>
            <g id="Line" filter="url(#filter-4)" stroke-linecap="square" stroke="#9C9C9C">
                <use sketch:type="MSShapeGroup" xlink:href="#path-5"></use>
                <use xlink:href="#path-5"></use>
                <use xlink:href="#path-5"></use>
                <use xlink:href="#path-5"></use>
            </g>
            <g id="Line" stroke-linecap="square" stroke="#9C9C9C">
                <use sketch:type="MSShapeGroup" xlink:href="#path-6"></use>
                <use xlink:href="#path-6"></use>
            </g>
        </g>
    </g>
</svg>